"","ITAG","X","M82.D4","M82.LA716","D4.LA716"
"1","Solyc01g009040",1,-3.59753856898738,-0.387896908090108,3.20964166089728
"2","Solyc01g014280",2,-2.92664340707694,3.16854343363604,6.09518684071299
"3","Solyc01g014290",3,-2.68917623143907,0.788000975198811,3.47717720663788
"4","Solyc01g060410",4,-2.71648620218282,-0.226938050755694,2.48954815142713
"5","Solyc01g068280",5,-1.97690124400702,1.49702086380199,3.47392210780901
"6","Solyc01g073690",6,-2.25462962624334,-0.0741484847349057,2.18048114150844
"7","Solyc01g074000",7,-3.13635983754825,-1.06739847037751,2.06896136717074
"8","Solyc01g079110",8,-3.15417354400103,-0.851183638947608,2.30298990505342
"9","Solyc01g080600",9,-2.59942239805204,-0.151919102373128,2.44750329567891
"10","Solyc01g086820",10,-4.26855656620179,0.387677060313959,4.65623362651575
"11","Solyc01g087500",11,-3.9827533788035,-0.220803974862639,3.76194940394086
"12","Solyc01g091010",12,-2.19084632741474,1.01783319040051,3.20867951781525
"13","Solyc01g095910",13,-3.92180724395678,0.762374560847104,4.68418180480388
"15","Solyc01g098980",15,-2.78535482808008,0.770226306203138,3.55558113428321
"16","Solyc01g099410",16,-3.68262814674116,-0.073601965151763,3.60902618158939
"17","Solyc01g106750",17,-3.29747090416825,-0.617453865858687,2.68001703830956
"18","Solyc01g108670",18,-3.17230290774386,0.470384710607838,3.6426876183517
"19","Solyc01g110130",19,-3.47610866648898,-0.955090428590969,2.52101823789801
"21","Solyc01g112080",21,-2.07623158148777,1.0446456041276,3.12087718561536
"23","Solyc02g069560",23,-3.23522615672955,0.231164580937619,3.46639073766717
"24","Solyc02g069630",24,-1.97630431630295,1.08742559891187,3.06372991521482
"25","Solyc02g070780",25,-3.14763015271245,-0.635735782830931,2.51189436988152
"26","Solyc02g071710",1,-2.38331702075025,-2.17127491518165,0.2120421055686
"27","Solyc02g077480",26,-3.48594592548417,-0.392569803915046,3.09337612156913
"29","Solyc02g081440",27,-2.81578110950138,0.826447130581411,3.64222824008279
"30","Solyc02g083610",28,-2.43484672638254,1.91616782539751,4.35101455178005
"31","Solyc02g083640",29,-3.57449005059373,-0.280156316171753,3.29433373442198
"32","Solyc02g083890",30,-3.09205820029914,-0.468056637957161,2.62400156234198
"33","Solyc02g086180",31,-2.67908084759513,-0.327512802351154,2.35156804524397
"34","Solyc02g087880",32,-3.89434374927931,0.749095839238256,4.64343958851757
"36","Solyc02g093300",34,-3.81030529281514,-0.964211352581104,2.84609394023404
"37","Solyc02g093720",35,-2.54073234581571,-0.268947964677944,2.27178438113776
"40","Solyc03g007050",36,-2.60250025009344,2.97210889345263,5.57460914354607
"41","Solyc03g007130",37,-3.72972024436946,0.106996648808029,3.83671689317749
"43","Solyc03g032190",39,-3.89375338421877,0.109908985079923,4.0036623692987
"44","Solyc03g045140",40,-3.39048480977496,3.39577022657837,6.78625503635333
"45","Solyc03g078230",5,-2.52674169960958,-3.01430304029688,-0.4875613406873
"46","Solyc03g095390",41,-4.63401850373963,0.762374560847104,5.39639306458674
"47","Solyc03g096890",42,-3.10811396020575,0.342978790696137,3.45109275090188
"48","Solyc03g111820",43,-3.09497326147253,6.73916082665818,9.83413408813071
"50","Solyc03g114690",45,-2.8497288112604,-0.0857695068808715,2.76395930437952
"51","Solyc03g115050",6,-2.83281001071979,-2.24742338739302,0.585386623326762
"53","Solyc03g119220",47,-3.48969480498007,0.120680476145135,3.61037528112521
"54","Solyc03g119940",48,-3.82537960425879,-0.177738501043375,3.64764110321541
"55","Solyc03g121900",49,-2.64042118879772,0.636407239699386,3.2768284284971
"56","Solyc04g007910",50,-2.17516711707592,1.23547221350487,3.41063933058079
"57","Solyc04g011390",51,-3.31016762373036,-0.888278435019084,2.42188918871128
"58","Solyc04g081080",52,-2.29866742054605,2.13473374201483,4.43340116256087
"59","Solyc04g081240",53,-2.1507725937308,4.02131564337916,6.17208823710996
"60","Solyc04g082840",54,-3.68706084467204,-0.152189896489077,3.53487094818296
"63","Solyc05g014670",57,-4.64287994702915,-0.819008562366121,3.82387138466303
"64","Solyc05g024230",8,-3.93050343007751,-3.9058206528427,0.0246827772348137
"67","Solyc06g007610",60,-2.42791121603086,3.13256769576054,5.5604789117914
"70","Solyc06g043150",62,-2.73400807043773,1.11051962236921,3.84452769280694
"75","Solyc06g072830",66,-2.92862684511943,0.4775850708089,3.40621191592833
"76","Solyc06g074790",11,-2.91256231361925,-2.5615724561431,0.350989857476156
"77","Solyc06g075850",67,-2.06107221020563,-0.160915541016692,1.90015666918894
"78","Solyc07g005020",68,-3.16003252864459,-0.884036709091931,2.27599581955266
"80","Solyc07g008710",69,-2.9703768634277,3.93052310723857,6.90089997066627
"82","Solyc07g032830",70,-4.65246448194396,0,4.65246448194396
"83","Solyc07g043070",71,-4.1846472283212,-0.39667384036131,3.78797338795989
"84","Solyc07g053950",14,-3.45961457629412,-2.52020069372141,0.939413882572707
"85","Solyc07g054280",72,-2.48489291794616,0.233865837428464,2.71875875537462
"89","Solyc07g064990",75,-2.73150339598806,2.9118404755215,5.64334387150956
"90","Solyc07g065210",76,-3.38404008937391,-0.081685996354139,3.30235409301977
"91","Solyc07g065530",77,-3.67175372529616,1.08805708379515,4.75981080909132
"92","Solyc07g066040",78,-3.16239950508362,-0.247270541022246,2.91512896406137
"94","Solyc08g006790",16,-4.47967070882432,-2.21007217810866,2.26959853071566
"96","Solyc08g062940",81,-2.85618297109748,0.78062811247204,3.63681108356952
"97","Solyc08g066050",82,-2.9099702526566,0.174996874085413,3.08496712674201
"99","Solyc08g068320",84,-2.4913481116659,0.306309869848158,2.79765798151406
"100","Solyc08g074620",85,-5.1745945333586,-1.37324073294769,3.80135380041091
"101","Solyc08g074630",86,-3.15020492736955,5.07412630249302,8.22433122986257
"102","Solyc08g075790",87,-2.5792608790165,0.685355044184979,3.26461592320148
"103","Solyc08g079760",88,-2.3771431382692,1.3645243326343,3.74166747090349
"104","Solyc08g082070",89,-2.99747678061149,0.598889980995938,3.59636676160743
"106","Solyc08g083210",91,-2.51641341646948,-4.68652674977741,-2.17011333330793
"107","Solyc09g007610",92,-2.45528496517753,0.102131221574679,2.55741618675221
"108","Solyc09g015170",93,-3.76262903182657,0.0204213071075614,3.78305033893413
"109","Solyc09g061400",94,-5.18375900969408,0.762374560847104,5.94613357054119
"110","Solyc09g064290",95,-2.77575449138978,-6.03048223900365,-3.25472774761387
"111","Solyc09g065880",96,-2.11718050153978,0.39377941622177,2.51095991776155
"112","Solyc09g072800",17,-3.38726424943119,-2.53044540446562,0.856818844965579
"113","Solyc09g075360",97,-2.93631667916315,1.98676630767594,4.92308298683909
"114","Solyc09g075550",98,-3.19578814934269,0.507740457301095,3.70352860664379
"116","Solyc09g083380",100,-3.11831117594529,-0.938973460364624,2.17933771558067
"117","Solyc09g092510",101,-3.27405547757353,-0.0712523354984578,3.20280314207507
"118","Solyc09g097860",102,-3.48330897271335,0.235397202416159,3.71870617512951
"121","Solyc10g007870",105,-2.11697169321022,1.31999626076017,3.43696795397039
"122","Solyc10g008210",106,-3.26946802705282,0.870359478736258,4.13982750578908
"123","Solyc10g008910",107,-4.08094638800586,-1.58148363125621,2.49946275674965
"125","Solyc10g054740",108,-5.00424141953864,0.74746086339284,5.75170228293148
"128","Solyc10g078330",110,-3.63511592651284,-0.455199234078427,3.17991669243441
"129","Solyc10g079350",111,-2.32250851405353,2.48962408990935,4.81213260396288
"130","Solyc10g080880",112,-2.94494521550541,0.442937742166803,3.38788295767222
"131","Solyc10g080950",113,-3.84368744036759,0.0588808868499244,3.90256832721751
"132","Solyc11g005090",114,-2.35601326233042,0.864127481270752,3.22014074360117
"133","Solyc11g010920",115,-3.44089894201466,0.107448123568899,3.54834706558356
"136","Solyc11g020960",117,-3.84291983551372,2.73051435767539,6.57343419318911
"137","Solyc11g030600",118,-3.40818182514923,-0.955552047494169,2.45262977765506
"138","Solyc11g040120",119,-2.96831446175496,-0.444298812813944,2.52401564894101
"139","Solyc11g042980",120,-5.03996416446697,0,5.03996416446697
"141","Solyc11g066130",122,-2.29860803542071,0.0792383073645286,2.37784634278524
"142","Solyc11g066390",123,-4.86912569595411,-0.35559723822313,4.51352845773098
"143","Solyc11g071640",124,-2.5626571843698,2.87931752354474,5.44197470791454
"144","Solyc11g071730",125,-3.1142555474585,0.0757794116183446,3.19003495907685
"145","Solyc11g072840",126,-3.55783944679742,-1.29588949325137,2.26194995354605
"146","Solyc11g072860",127,-3.75768502153418,0.288619385431919,4.0463044069661
"147","Solyc12g006790",128,-2.42562699114565,3.98031190301735,6.405938894163
"150","Solyc12g011010",130,-1.78160463904793,3.18590284577496,4.96750748482289
"152","Solyc12g088650",132,-2.00854193497634,0.408627936737772,2.41716987171411
"154","Solyc12g094650",134,-2.93231626997696,-5.23759057637757,-2.30527430640061
"156","Solyc12g098630",136,-3.10335106965791,-0.257354648791984,2.84599642086593
"157","Solyc12g100330",22,-2.97284543965405,-2.03285877728382,0.939986662370231
